<?xml version="1.0" encoding="utf-8"?>
<!-- Generator: Adobe Illustrator 25.2.0, SVG Export Plug-In . SVG Version: 6.00 Build 0)  -->
<svg version="1.1" id="Layer_1" xmlns="http://www.w3.org/2000/svg" xmlns:xlink="http://www.w3.org/1999/xlink" x="0px" y="0px"
	 viewBox="0 0 48 48" style="enable-background:new 0 0 48 48;" xml:space="preserve">
<style type="text/css">
	.st0{fill:#0E2D42;}
</style>
<path class="st0" d="M37.8,10c-0.4-1.2-1.5-2-2.8-2H13c-1.3,0-2.4,0.8-2.8,2L6,22v16c0,1.1,0.9,2,2,2h2c1.1,0,2-0.9,2-2v-2h24v2
	c0,1.1,0.9,2,2,2h2c1.1,0,2-0.9,2-2V22L37.8,10z M13,30c-1.7,0-3-1.3-3-3s1.3-3,3-3s3,1.3,3,3S14.7,30,13,30z M35,30
	c-1.7,0-3-1.3-3-3s1.3-3,3-3s3,1.3,3,3S36.7,30,35,30z M10,20l3-9h22l3,9H10z"/>
</svg>
