<?xml version="1.0" encoding="utf-8"?>
<!-- Generator: Adobe Illustrator 25.0.1, SVG Export Plug-In . SVG Version: 6.00 Build 0)  -->
<svg width="20px" height="20px" version="1.1" id="Layer_1" fill="#fff" xmlns="http://www.w3.org/2000/svg" xmlns:xlink="http://www.w3.org/1999/xlink" x="0px" y="0px"
	 viewBox="0 0 496 496" style="enable-background:new 0 0 496 496;" xml:space="preserve">
<path d="M280,58H104c-22.1,0-40,17.9-40,40v50c0,22.1,17.9,40,40,40h176c22.1,0,40-17.9,40-40V98C320,75.9,302.1,58,280,58z
	 M288,148c0,4.4-3.6,8-8,8H104c-4.4,0-8-3.6-8-8V98c0-4.4,3.6-8,8-8h176c4.4,0,8,3.6,8,8V148z"/>
<g>
	<path d="M130,263c0,8.8-7.2,16-16,16H64c-8.8,0-16-7.2-16-16s7.2-16,16-16h50C122.8,247,130,254.2,130,263z"/>
	<path d="M130,333c0,8.8-7.2,16-16,16H64c-8.8,0-16-7.2-16-16s7.2-16,16-16h50C122.8,317,130,324.2,130,333z"/>
	<path d="M130,403c0,8.8-7.2,16-16,16H64c-8.8,0-16-7.2-16-16s7.2-16,16-16h50C122.8,387,130,394.2,130,403z"/>
</g>
<path d="M233,263c0,8.8-7.2,16-16,16h-50c-8.8,0-16-7.2-16-16s7.2-16,16-16h50C225.8,247,233,254.2,233,263z"/>
<path d="M233,333c0,8.8-7.2,16-16,16h-50c-8.8,0-16-7.2-16-16s7.2-16,16-16h50C225.8,317,233,324.2,233,333z"/>
<path d="M233,403c0,8.8-7.2,16-16,16h-50c-8.8,0-16-7.2-16-16s7.2-16,16-16h50C225.8,387,233,394.2,233,403z"/>
<g>
	<path d="M336,263c0,8.8-7.2,16-16,16h-50c-8.8,0-16-7.2-16-16s7.2-16,16-16h50C328.8,247,336,254.2,336,263z"/>
	<path d="M336,333c0,8.8-7.2,16-16,16h-50c-8.8,0-16-7.2-16-16s7.2-16,16-16h50C328.8,317,336,324.2,336,333z"/>
	<path d="M336,403c0,8.8-7.2,16-16,16h-50c-8.8,0-16-7.2-16-16s7.2-16,16-16h50C328.8,387,336,394.2,336,403z"/>
</g>
<path d="M445.5,67H382V48c0-26.5-21.5-48-48-48H50C23.5,0,2,21.5,2,48v400c0,26.5,21.5,48,48,48h284c26.5,0,48-21.5,48-48v-26.5
	h63.5c26.5,0,48-24.7,48-55.2v-244C493.5,91.7,472,67,445.5,67z M350,448c0,8.8-7.2,16-16,16H50c-8.8,0-16-7.2-16-16V48
	c0-8.8,7.2-16,16-16h284c8.8,0,16,7.2,16,16V448z M461.5,366.3c0,10.1-7.2,18.4-16,18.4H382V103.8h63.5c8.8,0,16,8.3,16,18.4V366.3z
	"/>
<path d="M419.5,203.5c-8.8,0-16-7.2-16-16v-50c0-8.8,7.2-16,16-16s16,7.2,16,16v50C435.5,196.3,428.3,203.5,419.5,203.5z"/>
<path d="M419.5,303.5c-8.8,0-16-7.2-16-16v-50c0-8.8,7.2-16,16-16s16,7.2,16,16v50C435.5,296.3,428.3,303.5,419.5,303.5z"/>
</svg>
