<svg xmlns="http://www.w3.org/2000/svg" xmlns:xlink="http://www.w3.org/1999/xlink" width="110" height="110" viewBox="0 0 110 110">
  <defs>
    <rect id="rect-1" width="110" height="110" x="0" y="0"/>
    <mask id="mask-2" maskContentUnits="userSpaceOnUse" maskUnits="userSpaceOnUse">
      <rect width="110" height="110" x="0" y="0" fill="black"/>
      <use fill="white" xlink:href="#rect-1"/>
    </mask>
  </defs>
  <g>
    <use fill="none" xlink:href="#rect-1"/>
    <g mask="url(#mask-2)">
      <path fill="rgb(46,72,89)" fill-rule="evenodd" d="M96.91622925 85.10009766l.84518432-.84521485c1.94433594-1.9440918 3.01489258-4.52929687 3.01489258-7.27929687s-1.07055664-5.33508301-3.0151062-7.27954102l-6.2815857-6.27966308V46.58349609l6.28179932-6.27978515c1.94433594-1.94421387 3.01489258-4.52941895 3.01489258-7.27941895s-1.07055664-5.33520508-3.01489258-7.27929687l-.84518432-.84521485c.20840454.01037598.4170227.01611328.62561035.01611328 3.19192505 0 6.383667-1.21496582 8.81332397-3.64477539 4.85977173-4.85986328 4.85977173-12.76708984 0-17.62670898-4.8595581-4.85949707-12.76687622-4.85974121-17.62664795 0-2.58862304 2.58862305-3.79779052 6.04211426-3.62869262 9.43896484l-.84500122-.8449707c-1.9440918-1.94433594-4.5293274-3.01489258-7.2793274-3.01489258s-5.33499145 1.07055664-7.27954101 3.01513672l-6.27966309 6.28161621H46.5834961l-6.2798767-6.28186035c-1.94412232-1.94433594-4.52935792-3.01489258-7.27935792-3.01489258-2.74998474 0-5.33520507 1.07055664-7.27932739 3.01489258l-.84498596.8449707c.16929626-3.39685058-1.0398407-6.8503418-3.62870789-9.43896484-4.85975647-4.85974121-12.76708984-4.85949707-17.62663269 0-4.85977172 4.85974121-4.85977172 12.76708984 0 17.62670898 2.4298706 2.42980957 5.6215973 3.6447754 8.81330872 3.6447754.20861816 0 .41723633-.00573731.62562561-.01611329l-.84518433.84521485c-1.94433593 1.9440918-3.01490783 4.52929687-3.01490783 7.27929687s1.0705719 5.33508301 3.01512146 7.27954102l6.28160095 6.27966308v16.8326416l-6.28096008 6.28112794c-1.94412232 1.9440918-3.01490784 4.5291748-3.01490784 7.27868652 0 2.74963379 1.07078552 5.33435058 3.01490784 7.27844238l.84562683.84570313c-3.39732361-.16955567-6.85136414 1.0394287-9.44044495 3.62841796-4.85977173 4.85986329-4.85977173 12.76708985 0 17.62670899C6.07470703 108.78515625 9.26641846 110 12.45812988 110c3.19172669 0 6.38345337-1.21484375 8.81332398-3.6447754 2.5890808-2.58911132 3.79823303-6.04296874 3.62849426-9.44018554l.84562683.84558106c1.94412232 1.9440918 4.5289154 3.01489258 7.2784729 3.01489258 2.74957276 0 5.33435059-1.07080079 7.27868652-3.01489258l6.28097535-6.28100586h16.83258056L69.696167 97.7614746c1.94412232 1.94433594 4.5293274 3.01489258 7.2793274 3.01489258s5.33523559-1.07055664 7.27932739-3.01489258l.84500122-.8449707c-.16931153 3.39685058 1.03982544 6.85021972 3.62869262 9.43896484 2.42990113 2.42980957 5.62161255 3.6447754 8.81332398 3.6447754 3.19192505 0 6.383667-1.21496583 8.81332397-3.6447754 4.85977173-4.85986328 4.85977173-12.76708984 0-17.62670898-2.58865356-2.5888672-6.04205322-3.79797364-9.43893432-3.62866211zm.62561035-81.88305664c-2.46853638 0-4.7890625.96118164-6.53445435 2.70654296-3.59521484 3.59545899-3.60229492 9.44055176-.02233886 13.04541016l.04553222.04553223c3.60507202 3.58007812 9.45031739 3.57324218 13.04553223-.02209473 1.74539185-1.7454834 2.706604-4.06591797 2.706604-6.5345459 0-2.46838379-.96121215-4.78881836-2.706604-6.53430176-1.74539185-1.74536132-4.06591797-2.70654296-6.53427124-2.70654296zM5.92367554 18.99267578c-1.74539185-1.7454834-2.706604-4.06591797-2.706604-6.5345459 0-2.46838379.96121215-4.78881836 2.706604-6.53430175C7.66906738 4.1784668 9.9895935 3.21728515 12.45793152 3.21728515c2.46855163 0 4.78907776.96118164 6.5344696 2.70654297 3.59541321 3.59545898 3.60229492 9.44055175.02212525 13.04553222l-.04554749.0456543c-3.60464477 3.58007812-9.44989013 3.5727539-13.04530334-.02233887zm76.0520935 76.4897461c-1.33544922 1.33544921-3.11135864 2.07092285-5.00024414 2.07092285-1.88891601 0-3.66482544-.73547364-5.00006103-2.07067871l-5.61193848-5.6138916 4.16711426-4.16711426 1.92929077 1.92932129c.31472778.31469726.72702026.47192382 1.13952637.47192382.41229248 0 .82479858-.15722656 1.13952636-.47192382.62948609-.62927247.62948609-1.6496582 0-2.27905274l-1.92929077-1.92932129 2.85076905-2.85058594c.62948608-.62927246.62948608-1.64978027 0-2.27905273-.62927247-.6295166-1.64956665-.62927246-2.27908326 0l-9.96359253 9.96362305h-16.8338623L21.74369812 63.41638184v-16.8338623l10.77784729-10.77795411c.62948608-.62927246.62948608-1.64978027 0-2.27905273-.62927246-.62927247-1.64978027-.62927247-2.27905273 0l-3.6650238 3.66503906-1.92930604-1.9293213c-.62927246-.62939452-1.64978027-.62927245-2.27905273 0-.62950135.62951661-.62950135 1.64978028 0 2.27905274l1.92929077 1.9293213-4.16711426 4.16711425-5.61364746-5.61169434c-1.33546448-1.33544921-2.07087708-3.11132812-2.07087708-5.00024414 0-1.88891601.7354126-3.66479492 2.07087708-5.00024414l13.5065918-13.5065918c1.33546447-1.33557128 3.11135864-2.07092285 5.0002594-2.07092285 1.88890075 0 3.66481018.73535157 5.00007629 2.07067872l5.61190796 5.6138916-4.16708374 4.16711425-1.92932129-1.92932128c-.62927246-.6295166-1.64978027-.6295166-2.27905273 0-.62948609.62927246-.62948609 1.64953613 0 2.27905273l1.92929077 1.92932129-1.63238526 1.63232422c-.62948608.62927246-.62948608 1.64978027 0 2.27905273.62930298.6295166 1.64959717.6295166 2.27908326 0 0 0 8.67880249-8.81152344 8.74542236-8.74523926h16.83514404l9.35324097 9.35327149c.62927246.62927246 1.64978027.62927246 2.27905273 0 .62948609-.62927246.62948609-1.64978027 0-2.27905274l-2.24038696-2.24035644 1.92929077-1.92932129c.62948609-.6295166.62948609-1.64978027 0-2.27905273-.62927246-.6295166-1.64978027-.62927247-2.27905273 0l-1.92929077 1.92932128-4.16711426-4.16711425 5.61172485-5.61364746c1.33544922-1.3355713 3.11135864-2.07092286 5.00024414-2.07092286 1.88891602 0 3.66482544.73535157 5.00030518 2.07092286l13.50656128 13.5065918c1.33547973 1.33544921 2.07089233 3.11132812 2.07089233 5.00024413 0 1.88891602-.7354126 3.66479493-2.07067871 5l-5.61386108 5.61193848-4.16711426-4.16711426 1.92929077-1.92932129c.6295166-.62927246.6295166-1.64953613 0-2.27905273-.62927246-.62939453-1.64956665-.62939453-2.27905273 0l-1.92929078 1.92932129-3.0548706-3.05480957c-.62927246-.62927246-1.64978028-.62927246-2.27905274 0-.62948608.62927246-.62948608 1.64978027 0 2.27905273l10.1676941 10.16772461v16.835083l-9.55947876 9.5596924c-.62948609.62927245-.62948609 1.64978027 0 2.27905273.62927246.62927246 1.64978027.62927246 2.27905273 0l2.44665527-2.44665528 1.92929078 1.9293213c.3147583.31481933.72705078.47204589 1.13952636.47204589.4125061 0 .82479859-.15722656 1.13952637-.4720459.6295166-.6295166.6295166-1.64978027 0-2.27905273l-1.92929077-1.9293213 4.16711426-4.16711425 5.61364746 5.6118164c1.33547973 1.33544923 2.07089233 3.11132813 2.07089233 5.00024415 0 1.88891601-.7354126 3.66479492-2.07089233 5.00024414l-13.50637818 13.5065918zm-48.95170593 2.06994628c1.88847351 0 3.66416931-.73535156 4.99961853-2.07092285l5.61343384-5.61364746-4.16708374-4.16711426-1.92996216 1.93017579c-.31472778.31481933-.72702026.4720459-1.13952637.4720459-.4125061 0-.82476806-.15722657-1.13952636-.4720459-.62948609-.62927247-.62948609-1.64953614 0-2.27905274l1.92993164-1.93017578-10.61305237-10.61303711-1.93016052 1.92993164c-.31474305.31481934-.72724915.4720459-1.13952637.4720459-.4125061 0-.82479859-.15722656-1.13954163-.4720459-.62948608-.6295166-.62948608-1.64978027 0-2.27905273l1.93016053-1.92993164-4.16711426-4.16711426-5.61343384 5.61364746c-1.33546448 1.33544922-2.07087708 3.11096191-2.07087708 4.99963379 0 1.88867187.7354126 3.66418457 2.07087708 4.99963379l13.5061493 13.50610351c1.33547973 1.3355713 3.11116027 2.07092285 4.99963378 2.07092285zm64.51799011 9.23059082c2.46835327 0 4.7888794-.9613037 6.53427124-2.70666503 1.74539185-1.74536133 2.706604-4.06616211 2.70681763-6.53442383 0-2.46862793-.96121216-4.7890625-2.706604-6.5345459-1.80148316-1.8013916-4.16796875-2.7022705-6.53448487-2.7022705-2.35638427 0-4.71237182.89392089-6.51104736 2.68017577l-.04553223.04553223c-3.58016967 3.60510254-3.57330322 9.45007324.02212525 13.04553223 1.74539184 1.74536132 4.06591797 2.70666503 6.53445434 2.70666503zm-78.54943847-2.70666503c-1.74539185 1.7454834-4.06591797 2.70666503-6.5344696 2.70666503-2.46833802 0-4.78886414-.96118164-6.53425599-2.70666503-1.74539185-1.74536133-2.706604-4.06591797-2.706604-6.5341797 0-2.46862792.96121215-4.7890625 2.706604-6.5345459 1.8014679-1.8013916 4.16796875-2.7022705 6.5344696-2.7022705 2.36628724 0 4.7327881.9008789 6.53425599 2.7022705 3.60293579 3.60290528 3.60293579 9.46557618 0 13.0687256z"/>
      <path fill="rgb(46,72,89)" fill-rule="evenodd" d="M62.0296875 36.1743164c-.05220703-.33580078-.13814453-.65011718-.46427734-.98033203l-3.68951172-3.68951171c-.62927735-.6294922-1.64957031-.6294922-2.2790625 0-.62949219.62927734-.62949219 1.6495703 0 2.2790625l.93886719.93886718H49.5736914c-.89009766 0-1.61154297.72144532-1.61154297 1.61154297 0 .89009766.72144531 1.61154297 1.61154297 1.61154297h6.96201172l-.9388672.93886719c-.62949218.62949219-.62949218 1.64978515 0 2.2790625.3147461.3147461.72703126.47201172 1.13953126.47201172.4125 0 .82478515-.15748047 1.13953125-.47201172l3.68951172-3.68951172c.28058593-.31259766.52765625-.72789063.46427734-1.29958984z"/>
      <path fill="rgb(46,72,89)" fill-rule="evenodd" d="M78.49574219 55.59705078c-.62927735-.62949219-1.64957031-.62949219-2.2790625 0l-.93886719.93886719v-6.96201172c0-.89009766-.72144531-1.61154297-1.61154297-1.61154297-.89009765 0-1.61154297.72144531-1.61154297 1.61154297v6.96201172l-.93886718-.93886719c-.62927735-.62927734-1.64978516-.62927734-2.2790625 0-.6294922.62949219-.6294922 1.64978516 0 2.2790625l3.68951171 3.68951172c.5534375.56375 1.63259766.68041016 2.2794922 0l3.68951171-3.68951172c.62970703-.62949219.62970703-1.64978516.00042969-2.2790625z"/>
      <path fill="rgb(46,72,89)" fill-rule="evenodd" d="M60.4263086 72.0549414h-6.96201172l.93886718-.93886718c.62949219-.62949219.62949219-1.64978516 0-2.2790625-.62927734-.62927735-1.64978515-.62927735-2.2790625 0l-3.68951172 3.68951172c-.57642578.5652539-.66730468 1.64914062 0 2.27949218l3.68951172 3.68951172c.3147461.3147461.72703125.47201172 1.13953125.47201172.41228516 0 .82478516-.15726562 1.13953125-.47201172.62949219-.62927734.62949219-1.6495703 0-2.2790625l-.93886718-.93886718h6.96201171c.89009766 0 1.61154297-.72144532 1.61154297-1.61154297-.00021484-.88966797-.72166015-1.61111328-1.61154297-1.61111328z"/>
      <path fill="rgb(46,72,89)" fill-rule="evenodd" d="M37.47347656 48.43458984c-.56890625-.58007812-1.65386718-.66365234-2.27949218 0l-3.68951172 3.68951172c-.6294922.62927735-.6294922 1.64957031 0 2.2790625.31474609.3147461.72703125.47201172 1.13953125.47201172.41228515 0 .82478515-.15726562 1.13953125-.47201172l.93886718-.93886719v6.96201172c0 .89009766.72144532 1.61154297 1.61154297 1.61154297.89009766 0 1.61154297-.72144531 1.61154297-1.61154297v-6.96201172l.93886719.9388672c.3147461.31474609.72703125.47201171 1.13953125.47201171.4125 0 .82478516-.15726562 1.13953125-.47201172.62949219-.62949219.62949219-1.64978515 0-2.2790625l-3.6899414-3.68951172z"/>
    </g>
  </g>
</svg>
