<?xml version="1.0" encoding="utf-8"?>
<!-- Generator: Adobe Illustrator 25.0.1, SVG Export Plug-In . SVG Version: 6.00 Build 0)  -->
<svg width="25" height="25" version="1.1" id="Layer_1" xmlns="http://www.w3.org/2000/svg" xmlns:xlink="http://www.w3.org/1999/xlink" x="0px" y="0px"
	 viewBox="0 0 811 802" style="enable-background:new 0 0 811 802;" xml:space="preserve">
<style type="text/css">
	.st0{fill-rule:evenodd;clip-rule:evenodd;fill:#B2B2B2;}
	.st1{fill:#FFFFFF;}
</style>
<g id="Layer_1_1_" xmlns:serif="http://www.serif.com/">
	<path class="st0" d="M789.5,691.2l-0.1-580.3c0-51.8-42-93.8-93.8-93.8H115.3c-51.8,0-93.8,42-93.8,93.8v580.3
		c0,51.8,42,93.8,93.8,93.8h580.4C747.5,785,789.5,743,789.5,691.2z"/>
</g>
<path id="f_9_" class="st1" d="M566.6,785V497h96l24-120h-120v-48c0-48,24.1-72,72-72h48v-120c-24,0-53.8,0-96,0
	c-88.2,0-144,69.2-144,168v72h-96v120h96v288L566.6,785L566.6,785z"/>
</svg>
