<?xml version="1.0" encoding="utf-8"?>
<!-- Generator: Adobe Illustrator 25.0.1, SVG Export Plug-In . SVG Version: 6.00 Build 0)  -->
<svg width="20px" height="20px" fill="#fff" version="1.1" id="Layer_1" xmlns="http://www.w3.org/2000/svg" xmlns:xlink="http://www.w3.org/1999/xlink" x="0px" y="0px"
	 viewBox="0 0 96 96" style="enable-background:new 0 0 96 96;" xml:space="preserve">
<g>
	<path d="M75.5,54H30c-3.3,0-6-2.7-6-6s2.7-6,6-6h45.5l-7.8-7.8c-2.3-2.3-2.3-6.1,0-8.5c2.3-2.3,6.1-2.3,8.5,0l18,18
		c2.3,2.3,2.3,6.1,0,8.5c0,0,0,0,0,0l-18,18c-2.3,2.3-6.1,2.4-8.5,0c-2.3-2.3-2.4-6.1,0-8.5c0,0,0,0,0,0L75.5,54z"/>
	<path d="M6,0h48c3.3,0,6,2.7,6,6c0,0,0,0,0,0v12c0,3.3-2.7,6-6,6s-6-2.7-6-6v-6H12v72h36v-6c0-3.3,2.7-6,6-6s6,2.7,6,6v12
		c0,3.3-2.7,6-6,6c0,0,0,0,0,0H6c-3.3,0-6-2.7-6-6c0,0,0,0,0,0V6C0,2.7,2.7,0,6,0C6,0,6,0,6,0z"/>
</g>
</svg>
