<?xml version="1.0" encoding="utf-8"?>
<!-- Generator: Adobe Illustrator 25.0.1, SVG Export Plug-In . SVG Version: 6.00 Build 0)  -->
<svg version="1.1" id="Layer_1" xmlns="http://www.w3.org/2000/svg" xmlns:xlink="http://www.w3.org/1999/xlink" x="0px" y="0px"
	 viewBox="0 0 64 64" style="enable-background:new 0 0 64 64;" xml:space="preserve">
<style type="text/css">
	.st0{fill:none;stroke:#D8D8D8;stroke-width:2;stroke-linecap:round;stroke-linejoin:round;}
</style>
<polygon class="st0" points="25,11 10,15 10,53 25,49 "/>
<polyline class="st0" points="34.2,13.5 25,11 25,49 40,53 40,26.4 "/>
<polyline class="st0" points="40,26.4 40,53 55,49 55,26.4 "/>
<path class="st0" d="M41,8.3L41,8.3c3.6-3.6,9.4-3.6,13,0l0,0c3.6,3.6,3.6,9.4,0,13c0,0,0,0,0,0l-6.5,6.5l0,0L41,21.3
	C37.4,17.7,37.4,11.9,41,8.3C41,8.3,41,8.3,41,8.3z"/>
<circle class="st0" cx="47.5" cy="14.7" r="4.3"/>
</svg>
