<svg xmlns="http://www.w3.org/2000/svg" width="113" height="113" viewBox="0 0 113 113">
  <g>
    <path fill="rgb(255,255,255)" fill-rule="evenodd" d="M79.09997559 56.5h28.25C110.46508789 56.5 113 59.03515625 113 62.14990234v45.20019532C113 110.46484375 110.4650879 113 107.34997559 113H1.88330079C.84375 113 0 112.15625 0 111.11669922V1.88330078C0 .84375.84375 0 1.88330078 0h65.91674805c.55932617 0 1.08850097.24853516 1.44628906.67797852l9.41674805 11.30004882c.2824707.3388672.43688965.76464844.43688965 1.20507813V56.5zM3.76672363 3.76660156h62.15002442v9.4165039c0 1.03955079.84375 1.88330079 1.88330078 1.88330079h7.5333252V56.5h-9.41662598c-3.1151123 0-5.65002442 2.53466797-5.65002442 5.64990234v45.20019532c0 .66259765.13562012 1.29199218.34655762 1.88330078H3.76672363V3.76660156zm69.42907715 7.5336914l-3.51245117-4.21508788v4.21508789h3.51245117zm34.1541748 97.93310548c1.03771973 0 1.88330079-.84570313 1.88330079-1.88330078V62.14990234c0-1.03759765-.84558106-1.88330078-1.88330078-1.88330078H65.91662598c-1.03771973 0-1.88330078.84570313-1.88330078 1.88330078v45.20019532c0 1.03759765.84558105 1.88330078 1.88330078 1.88330078h41.4333496z"/>
    <path fill="rgb(255,255,255)" fill-rule="evenodd" d="M25.0256241 45.75152655l18.83314743-18.833158 2.6634363 2.66343479-18.83314744 18.833158-2.6634363-2.66343479z"/>
    <path fill="rgb(255,255,255)" fill-rule="evenodd" d="M43.3166504 48.9663086c-3.11511231 0-5.65002442-2.53466797-5.65002442-5.64990235 0-3.1147461 2.5349121-5.64990234 5.65002441-5.64990234 3.11499024 0 5.65002441 2.53515625 5.65002441 5.64990234 0 3.11523438-2.53503417 5.64990234-5.6500244 5.64990234zm0-3.76660157c1.03771972 0 1.88342284-.84570312 1.88342284-1.88330078 0-1.03759766-.84570312-1.88330078-1.88342285-1.88330078s-1.88330078.84570312-1.88330078 1.88330078c0 1.03759766.84558105 1.88330078 1.88330078 1.88330078z"/>
    <path fill="rgb(255,255,255)" fill-rule="evenodd" d="M33.90002441 32.01660156c0 3.11523438-2.53503418 5.64990235-5.65002441 5.64990235-3.1151123 0-5.65002441-2.53466797-5.65002441-5.64990235 0-3.1147461 2.5349121-5.64990234 5.65002441-5.64990234 3.11499023 0 5.65002441 2.53515625 5.65002441 5.64990234zm-3.76660156 0c0-1.03759765-.84570312-1.88330078-1.88342285-1.88330078s-1.88330078.84570313-1.88330078 1.88330078c0 1.03759766.84558105 1.88330078 1.88330078 1.88330078s1.88342285-.84570312 1.88342285-1.88330078z"/>
    <path fill="rgb(255,255,255)" fill-rule="evenodd" d="M101.7 64.03333333H71.56666667C69.48935 64.03333333 67.8 65.72268333 67.8 67.8v5.65c0 2.07731667 1.68935 3.76666667 3.76666667 3.76666667H96.05V73.45H71.56666667V67.8H101.7v5.65h-1.88333333v3.76666667H101.7c2.07731667 0 3.76666667-1.68935 3.76666667-3.76666667V67.8c0-2.07731667-1.68935-3.76666667-3.76666667-3.76666667z"/>
    <path fill="rgb(255,255,255)" fill-rule="evenodd" d="M79.1 80.98333333h-3.76666667V84.75h-3.76666666v3.76666667h3.76666666v3.76666666H79.1v-3.76666666h3.76666667V84.75H79.1v-3.76666667z"/>
    <path fill="rgb(255,255,255)" fill-rule="evenodd" d="M79.8797 94.4906l-2.66303333 2.66303333L74.55363333 94.4906 71.8906 97.15363333l2.66303333 2.66303334L71.8906 102.4797l2.66303333 2.66303333L77.21666667 102.4797 79.8797 105.14273333 82.54273333 102.4797 79.8797 99.81666667l2.66303333-2.66303334L79.8797 94.4906z"/>
    <path fill="rgb(255,255,255)" fill-rule="evenodd" d="M90.4 84.75h11.3v3.76666667H90.4V84.75z"/>
    <path fill="rgb(255,255,255)" fill-rule="evenodd" d="M90.4 97.93333333h11.3V101.7H90.4v-3.76666667z"/>
    <path fill="rgb(255,255,255)" fill-rule="evenodd" d="M94.16666667 94.16666667h3.76666666V96.05h-3.76666666v-1.88333333z"/>
    <path fill="rgb(255,255,255)" fill-rule="evenodd" d="M94.16666667 103.58333333h3.76666666v1.88333334h-3.76666666v-1.88333334z"/>
    <path fill="rgb(255,255,255)" fill-rule="evenodd" d="M11.29992676 58.38330078c-1.03955078 0-1.88330078-.84375-1.88330078-1.88330078V32.01660156H7.5333252c-.80041504 0-1.5123291-.50488281-1.77600098-1.25976562-.26367188-.7553711-.02453613-1.59521485.60083008-2.09423828l28.25-22.60009766c.68737793-.55004883 1.66479492-.55004883 2.35217285 0l8.23962402 6.5913086V9.4165039c0-1.03955078.84375-1.88330078 1.88330078-1.88330078h7.5333252c1.03967285 0 1.88342285.84375 1.88342285 1.88330079v12.27929687l8.71032715 6.96679688c.6253662.49902343.86450195 1.33886718.60083008 2.09423828-.26550293.75488281-.977417 1.25976562-1.77783203 1.25976562H62.1500244V56.5c0 1.03955078-.84375 1.88330078-1.88342285 1.88330078h-48.9666748zM45.90625 18.04394531L35.7833252 9.94580078 12.43188477 28.62646484c.45581054.34472657.75146484.89111328.75146484 1.50683594v24.48339844h45.19995117V30.13330078c0-.61572265.29577637-1.16210937.75146485-1.50683594l-5.69519043-4.55566406c-.44628907-.35791015-.70629883-.8984375-.70629883-1.47070312V11.29980469H48.9666748v5.2734375c0 .72314453-.41430664 1.38427734-1.06787109 1.69873047-.65161133.30908203-1.4276123.22412109-1.99255371-.22802735z"/>
    <path fill="rgb(255,255,255)" fill-rule="evenodd" d="M54.61657715 64.03320313h-43.3166504c-1.03955077 0-1.88330077.84375-1.88330077 1.88330078v37.6665039c0 1.04003907.84375 1.88330078 1.88330078 1.88330078h43.31665039c1.03967285 0 1.88342285-.84326171 1.88342285-1.88330078v-37.6665039c0-1.03955079-.84375-1.88330079-1.88342285-1.88330079zM13.1833496 67.79980468h18.83337402v33.89990234H13.18334961V67.7998047zm22.59997559 33.89990234h16.94995117V67.7998047H35.7833252v33.89990234z"/>
    <path fill="rgb(255,255,255)" fill-rule="evenodd" d="M16.95 71.56666667h11.3v3.76666666h-11.3v-3.76666666z"/>
    <path fill="rgb(255,255,255)" fill-rule="evenodd" d="M16.95 79.1h11.3v3.76666667h-11.3V79.1z"/>
    <path fill="rgb(255,255,255)" fill-rule="evenodd" d="M39.55 71.56666667h7.53333333v3.76666666H39.55v-3.76666666z"/>
    <path fill="rgb(255,255,255)" fill-rule="evenodd" d="M39.55 79.1h7.53333333v3.76666667H39.55V79.1z"/>
    <path fill="rgb(255,255,255)" fill-rule="evenodd" d="M16.95 86.63333333h11.3V90.4h-11.3v-3.76666667z"/>
    <path fill="rgb(255,255,255)" fill-rule="evenodd" d="M16.95 94.16666667h11.3v3.76666666h-11.3v-3.76666666z"/>
    <path fill="rgb(255,255,255)" fill-rule="evenodd" d="M39.55 86.63333333h7.53333333V90.4H39.55v-3.76666667z"/>
    <path fill="rgb(255,255,255)" fill-rule="evenodd" d="M39.55 94.16666667h7.53333333v3.76666666H39.55v-3.76666666z"/>
  </g>
</svg>
