<?xml version="1.0" encoding="utf-8"?>
<!-- Generator: Adobe Illustrator 25.0.1, SVG Export Plug-In . SVG Version: 6.00 Build 0)  -->
<svg version="1.1" id="Layer_1" xmlns="http://www.w3.org/2000/svg" xmlns:xlink="http://www.w3.org/1999/xlink" x="0px" y="0px"
	 viewBox="0 0 811 802" style="enable-background:new 0 0 811 802;" xml:space="preserve">
<style type="text/css">
	.st0{fill-rule:evenodd;clip-rule:evenodd;fill:#B2B2B2;}
</style>
<g>
	<path class="st0" d="M728.4,703.4H262.8c-46.5,0-84.7-38.1-84.7-84.7V195.5c0-46.5,38.1-84.7,84.7-84.7h338.6
		c46.5,0,84.7,38.1,84.7,84.7v21.2c-120,0-359.8,0-359.8,0c-14.1,0.1-14.1,21.2,0,21.2h402.5c23.8,0.1,45.3,10.2,60.6,26.2l0-153.1
		c0-51.8-42-93.8-93.8-93.8H115.3c-51.8,0-93.8,42-93.8,93.8v580.3c0,51.8,42,93.8,93.8,93.8h580.4c51.8,0,93.8-42,93.8-93.8l0-14.1
		C774.1,693.3,752.3,703.4,728.4,703.4z"/>
	
		<ellipse transform="matrix(0.3827 -0.9239 0.9239 0.3827 1.8417 943.8707)" class="st0" cx="707.2" cy="470.6" rx="21.2" ry="21.2"/>
</g>
</svg>
